{
    "_comment": "IMPORTANT : go to the wiki page to know about options configuration https://github.com/servocoder/RichFilemanager/wiki/Configuration-options",
    "options": {
        "theme": "default",
        "showTitleAttr": false,
        "showConfirmation": true,
        "browseOnly": true,
        "searchBox": true,
        "fileSorting": "NAME_ASC",
        "folderPosition": "bottom",
        "quickSelect": false,
        "logger": false,
        "allowFolderDownload": true,
        "allowChangeExtensions": false,
        "capabilities": [
            "download"
        ]
    },
    "language": {
        "default": "es",
        "available": ["es"]
    },
    "filetree": {
        "enabled": true,
        "foldersOnly": true,
        "reloadOnClick": true,
        "expandSpeed": 200,
        "showLine": true,
        "width": 240,
        "minWidth": 200
    },
    "manager": {
        "defaultViewMode": "list",
        "dblClickOpen": false,
        "selection": {
            "enabled": false,
            "useCtrlKey": false
        },
        "renderer": {
            "position": false,
            "indexFile": "readme.md"
        }
    },
    "api": {
        "lang": "php",
        "connectorUrl": false,
        "requestParams": {
            "GET": {},
            "POST": {},
            "MIXED": {}
        }
    },
    "upload": {
        "multiple": false,
        "maxNumberOfFiles": 5,
        "chunkSize": false
    },
    "clipboard": {
        "enabled": false,
        "encodeCopyUrl": false
    },
    "filter": {
        "image": ["jpg", "jpeg", "gif", "png", "svg"],
        "media": ["ogv", "avi", "mkv", "mp4", "webm", "m4v", "ogg", "mp3", "wav"],
        "office": ["txt", "pdf", "odp", "ods", "odt", "rtf", "doc", "docx", "xls", "xlsx", "ppt", "pptx", "csv", "md"],
        "archive": ["zip", "tar", "rar"],
        "audio": ["ogg", "mp3", "wav"],
        "video": ["ogv", "avi", "mkv", "mp4", "webm", "m4v"]
    },
    "viewer": {
        "absolutePath": true,
        "previewUrl": false,
        "image": {
            "enabled": true,
            "lazyLoad": true,
            "showThumbs": true,
            "thumbMaxWidth": 64,
            "extensions": [
                "jpg",
                "jpe",
                "jpeg",
                "gif",
                "png",
                "svg"
            ]
        },
        "video": {
            "enabled": true,
            "extensions": [
                "ogv",
                "mp4",
                "webm",
                "m4v"
            ],
            "playerWidth": 800,
            "playerHeight": 222
        },
        "audio": {
            "enabled": true,
            "extensions": [
                "ogg",
                "mp3",
                "wav"
            ]
        },
        "iframe": {
            "enabled": true,
            "extensions": [
                "htm",
                "html"
            ],
            "readerWidth": "95%",
            "readerHeight": "600"
        },
        "opendoc": {
            "enabled": true,
            "extensions": [
                "pdf",
                "odt",
                "odp",
                "ods"
            ],
            "readerWidth": "800",
            "readerHeight": "600"
        },
        "google": {
            "enabled": true,
            "extensions": [
                "doc",
                "docx",
                "xls",
                "xlsx",
                "ppt",
                "pptx"
            ],
            "readerWidth": "800",
            "readerHeight": "600"
        },
        "codeMirrorRenderer": {
            "enabled": true,
            "extensions": [
                "txt",
                "csv"
            ]
        },
        "markdownRenderer": {
            "enabled": true,
            "extensions": [
                "md"
            ]
        }
    },
    "editor": {
        "enabled": true,
        "theme": "default",
        "lineNumbers": true,
        "lineWrapping": true,
        "codeHighlight": true,
        "matchBrackets": true,
        "extensions": [
            "html",
            "txt",
            "csv",
            "md"
        ]
    },
    "customScrollbar": {
    	"enabled": true,
    	"theme": "inset-2-dark",
    	"button": true
    },
    "extras": {
        "extra_js": [],
        "extra_js_async": true
    },
    "url": "https://github.com/servocoder/RichFilemanager",
    "version": "2.6.1"
}